Week 6 Tasks
…
Week 6 Tasks

Peter Boyd

10/31/2018

The data:

## # A tibble: 30 x 2
##     Year Population
##    <int>      <int>
##  1  1970     419000
##  2  1971     405000
##  3  1972     383000
##  4  1973     376000
##  5  1974     362000
##  6  1975     347000
##  7  1976     326000
##  8  1977     318000
##  9  1978     311000
## 10  1979     311000
## # ... with 20 more rows
…
